<define-tag pagetitle>DLA-846-1 libzip-ruby</define-tag>
<define-tag report_date>2017-3-6</define-tag>
<define-tag secrefs>CVE-2017-5946 Bug#856269</define-tag>
<define-tag packages>libzip-ruby</define-tag>
<define-tag isvulnerable>yes</define-tag>
<define-tag fixed>yes</define-tag>
<define-tag fixed-section>no</define-tag>

#use wml::debian::security

