<define-tag pagetitle>DLA-2171-1 ceph</define-tag>
<define-tag report_date>2020-04-09</define-tag>
<define-tag secrefs>CVE-2020-1760</define-tag>
<define-tag packages>ceph</define-tag>
<define-tag isvulnerable>yes</define-tag>
<define-tag fixed>yes</define-tag>
<define-tag fixed-section>no</define-tag>

#use wml::debian::security
