<define-tag pagetitle>DLA-2110-1 netty-3.9</define-tag>
<define-tag report_date>2020-02-19</define-tag>
<define-tag secrefs>CVE-2014-0193 CVE-2014-3488 CVE-2019-16869 CVE-2019-20444 CVE-2019-20445 CVE-2020-7238 Bug#746639 Bug#941266 Bug#950966 Bug#950967</define-tag>
<define-tag packages>netty-3.9</define-tag>
<define-tag isvulnerable>yes</define-tag>
<define-tag fixed>yes</define-tag>
<define-tag fixed-section>no</define-tag>

#use wml::debian::security

