<define-tag pagetitle>DLA-1293-1 imagemagick</define-tag>
<define-tag report_date>2018-2-25</define-tag>
<define-tag secrefs>CVE-2018-7443 Bug##891291</define-tag>
<define-tag packages>imagemagick</define-tag>
<define-tag isvulnerable>yes</define-tag>
<define-tag fixed>yes</define-tag>
<define-tag fixed-section>no</define-tag>

#use wml::debian::security

