<define-tag pagetitle>DLA-179-1 tzdata</define-tag>
<define-tag report_date>2015-3-22</define-tag>
<define-tag packages>tzdata</define-tag>
<define-tag isvulnerable>yes</define-tag>
<define-tag fixed>yes</define-tag>
<define-tag fixed-section>no</define-tag>

#use wml::debian::security

