<define-tag pagetitle>DLA-2035-1 libpgf</define-tag>
<define-tag report_date>2019-12-15</define-tag>
<define-tag secrefs>CVE-2015-6673</define-tag>
<define-tag packages>libpgf</define-tag>
<define-tag isvulnerable>yes</define-tag>
<define-tag fixed>yes</define-tag>
<define-tag fixed-section>no</define-tag>

#use wml::debian::security

