<define-tag pagetitle>DLA-655-1 mpg123</define-tag>
<define-tag report_date>2016-10-15</define-tag>
<define-tag packages></define-tag>
<define-tag secrefs>CVE-2014-9497 CVE-2016-1000247</define-tag>
<define-tag isvulnerable>yes</define-tag>
<define-tag fixed>yes</define-tag>
<define-tag fixed-section>no</define-tag>

#use wml::debian::security

