<define-tag pagetitle>DLA-749-1 php5</define-tag>
<define-tag report_date>2016-12-16</define-tag>
<define-tag secrefs>CVE-2016-5385 CVE-2016-7124 CVE-2016-7128 CVE-2016-7129 CVE-2016-7130 CVE-2016-7131 CVE-2016-7132 CVE-2016-7411 CVE-2016-7412 CVE-2016-7413 CVE-2016-7414 CVE-2016-7416 CVE-2016-7417 CVE-2016-7418</define-tag>
<define-tag packages>php5</define-tag>
<define-tag isvulnerable>yes</define-tag>
<define-tag fixed>yes</define-tag>
<define-tag fixed-section>no</define-tag>

#use wml::debian::security

